…
    ## Warning: Problem with `mutate()` input `item_id`.
    ## ℹ  強制変換により NA が生成されました 
    ## ℹ Input `item_id` is `as.numeric(item_id)`.

    ## Warning in mask$eval_all_mutate(dots[[i]]): 強制変換により NA が生成されました

アイテムリストのマージ

``` r
head(results, 100)
```

    ## # A tibble: 100 x 23
    ## # Groups:   c1, c2, run_id, data_src [100]
    ##    item_id correct run_id is_correct    rt span_kinki span_tokyo span_unknown
    ##      <dbl> <chr>    <dbl> <lgl>      <dbl>      <int>      <int>        <int>
    ##  1       1 a          189 TRUE       1217.         48          0            0
    ##  2       1 a          165 TRUE        448          53          0            0
    ##  3       1 a           30 FALSE      2109.          2         10           54
    ##  4       1 a           32 TRUE        166.         41          0            0
    ##  5       1 a          249 FALSE       632.          0         40            0
    ##  6       1 a          105 FALSE      1088.         35          0            0
    ##  7       1 a           19 TRUE       1027.          0         10           14
    ##  8       1 a           76 TRUE        521.          0         54            0
    ##  9       1 a          148 TRUE        877.          0          6           19
    ## 10       1 a          161 TRUE        409.          0         36            4
    ## # … with 90 more rows, and 15 more variables: age <int>, data_src <chr>,
    ## #   span_tokyo_span_kinki <int>, tokyo_kinki_ratio <dbl>, type <chr>,
    ## #   condition <chr>, item_a <chr>, item_x <chr>, item_b <chr>, c1 <chr>,
    ## #   c2 <chr>, is_correct_mean <dbl>, phoneme_envs <chr>, subject_id <chr>,
    ## #   pair <chr>
…
