…
``` r
results_by_subject
```

    ## # A tibble: 248 x 21
    ##    run_id data_src item  accuracy_mean phoneme pitch_from voiced subj_id
    ##     <dbl> <chr>    <chr>         <dbl> <chr>   <chr>       <dbl> <chr>  
    ##  1    152 cw       etst…          0.75 etsto   From H_L   0.0417 152_ru…
    ##  2    152 cw       esko…          0.5  esko    From H_L   0.0417 152_ru…
    ##  3    152 cw       etst…          0.5  etsto   From L_H   0.0417 152_ru…
    ##  4    152 cw       esko…          1    esko    From L_H   0.0417 152_ru…
    ##  5    128 sone     etst…          1    etsto   From H_L   0.167  128_00…
    ##  6    128 sone     esko…          0.75 esko    From H_L   0.167  128_00…
    ##  7    128 sone     etst…          0.75 etsto   From L_H   0.167  128_00…
    ##  8    128 sone     esko…          1    esko    From L_H   0.167  128_00…
    ##  9     45 cw       etst…          0.75 etsto   From H_L   0.208  45_りりな…
    ## 10     45 cw       esko…          0.75 esko    From H_L   0.208  45_りりな…
    ## # … with 238 more rows, and 13 more variables: input_id <chr>,
    ## #   span_tokyo <dbl>, span_kinki <dbl>, age <dbl>, span_unknown <dbl>,
    ## #   devoiced <dbl>, span_tokyo_span_kinki <dbl>, span_tokyo_span_other <dbl>,
    ## #   span_kinki_span_tokyo <dbl>, span_kinki_span_other <dbl>,
    ## #   tokyo_kinki_ratio <dbl>, tokyo_other_ratio <dbl>, tokyo_ratio <dbl>
…
