…
    ## 
    ## ─ Column specification ────────────────────────────
    ## cols(
    ##   .default = col_character(),
    ##   現在の年齢 = col_double()
    ## )
    ## ℹ Use `spec()` for the full column specifications.

    ## `summarise()` regrouping output by 'input_id', 'pattern' (override with `.groups` argument)

``` r
results
```

    ## # A tibble: 256 x 4
    ##    input_id   pattern word   eval_by_pattern
    ##    <chr>      <chr>   <chr>            <dbl>
    ##  1 1takuya1   other   azuki                0
    ##  2 1takuya1   other   karasu               1
    ##  3 1takuya1   other   kotoba               0
    ##  4 1takuya1   other   usagi                0
    ##  5 1takuya1   tokyo   azuki                3
    ##  6 1takuya1   tokyo   karasu               2
    ##  7 1takuya1   tokyo   kotoba               3
    ##  8 1takuya1   tokyo   usagi                2
    ##  9 bambooblue other   azuki                3
    ## 10 bambooblue other   karasu               1
    ## # … with 246 more rows
…
